Assignment4_JG
…
departure_delays %>%
  as_tibble() %>%
  print()

# A tibble: 102 × 3
   airport                mean_dep_delay median_dep_delay
   <chr>                           <dbl>            <dbl>
 1 Columbia Metropolitan            35.6             14  
 2 Tulsa Intl                       34.9              8  
 3 Will Rogers World                30.6             10  
 4 Birmingham Intl                  29.7              1  
 5 Mc Ghee Tyson                    28.5              0  
 6 Jackson Hole Airport             26.5             13.5
 7 Des Moines Intl                  26.2             -1  
 8 Richmond Intl                    23.6             -1  
 9 Albany Intl                      23.6              1  
10 Dane Co Rgnl Truax Fld           23.6             -1  
# ℹ 92 more rows
…
arrival_delays %>%
  as_tibble() %>%
  print()

# A tibble: 102 × 3
   airport                       mean_arr_delay median_arr_delay
   <chr>                                  <dbl>            <dbl>
 1 Columbia Metropolitan                   41.8               28
 2 Tulsa Intl                              33.7               14
 3 Will Rogers World                       30.6               16
 4 Jackson Hole Airport                    28.1               15
 5 Mc Ghee Tyson                           24.1                2
 6 Dane Co Rgnl Truax Fld                  20.2                1
 7 Richmond Intl                           20.1                1
 8 Akron Canton Regional Airport           19.7                3
 9 Des Moines Intl                         19.0                0
10 Gerald R Ford Intl                      18.2                1
# ℹ 92 more rows
…
